{
    "key": "group_59ef45831481b",
    "title": "CPT - Articles",
    "fields": [
        {
            "key": "field_59ef45897757b",
            "label": "Résumé",
            "name": "resume",
            "type": "textarea",
            "instructions": "Sera affiché sur les listing d'actualités",
            "required": 1,
            "conditional_logic": 0,
            "wrapper": {
                "width": "",
                "class": "",
                "id": ""
            },
            "default_value": "",
            "placeholder": "",
            "maxlength": 275,
            "rows": "",
            "new_lines": ""
        },
        {
            "key": "field_61d41fe40f5d9",
            "label": "Image supplémentaire",
            "name": "second_img",
            "type": "image",
            "instructions": "Sera affichée dans la bannière haute en complément de l'image à la une",
            "required": 0,
            "conditional_logic": 0,
            "wrapper": {
                "width": "",
                "class": "",
                "id": ""
            },
            "user_roles": [
                "all"
            ],
            "return_format": "array",
            "preview_size": "medium",
            "library": "all",
            "min_width": "",
            "min_height": "",
            "min_size": "",
            "max_width": "",
            "max_height": "",
            "max_size": "",
            "mime_types": ""
        }
    ],
    "location": [
        [
            {
                "param": "post_type",
                "operator": "==",
                "value": "post"
            }
        ]
    ],
    "menu_order": 0,
    "position": "normal",
    "style": "default",
    "label_placement": "top",
    "instruction_placement": "label",
    "hide_on_screen": [
        "excerpt",
        "discussion",
        "comments",
        "author",
        "format",
        "page_attributes",
        "tags",
        "send-trackbacks"
    ],
    "active": true,
    "description": "",
    "show_in_rest": 0,
    "modified": 1641291797
}