{
    "key": "group_5ce403a9926a0",
    "title": "Builder - Titre",
    "fields": [
        {
            "key": "field_5c2dccb2635d2",
            "label": "Titre du bloc",
            "name": "block_title",
            "type": "text",
            "instructions": "",
            "required": 0,
            "conditional_logic": 0,
            "wrapper": {
                "width": "",
                "class": "",
                "id": ""
            },
            "default_value": "",
            "placeholder": "",
            "prepend": "",
            "append": "",
            "maxlength": ""
        },
        {
            "key": "field_5c2dccc0635d3",
            "label": "Description du bloc",
            "name": "block_description",
            "type": "wysiwyg",
            "instructions": "",
            "required": 0,
            "conditional_logic": 0,
            "wrapper": {
                "width": "",
                "class": "",
                "id": ""
            },
            "default_value": "",
            "tabs": "all",
            "toolbar": "basic",
            "media_upload": 0,
            "delay": 1
        }
    ],
    "location": [
        [
            {
                "param": "block",
                "operator": "==",
                "value": "acf\/news"
            }
        ],
        [
            {
                "param": "block",
                "operator": "==",
                "value": "acf\/list"
            }
        ],
        [
            {
                "param": "block",
                "operator": "==",
                "value": "acf\/testimonials"
            }
        ],
        [
            {
                "param": "block",
                "operator": "==",
                "value": "acf\/team"
            }
        ],
        [
            {
                "param": "block",
                "operator": "==",
                "value": "acf\/drawers"
            }
        ]
    ],
    "menu_order": -1,
    "position": "normal",
    "style": "default",
    "label_placement": "top",
    "instruction_placement": "label",
    "hide_on_screen": "",
    "active": true,
    "description": "",
    "show_in_rest": 0,
    "modified": 1640018761
}